<?xml version="1.0" encoding="UTF-8"?>
<testsuite xmlns:xsi="http://www.w3.org/2001/XMLSchema-instance" xsi:noNamespaceSchemaLocation="https://maven.apache.org/surefire/maven-surefire-plugin/xsd/surefire-test-report.xsd" name="org.acme.graph.io.GraphReaderTest" time="8.143" tests="1" errors="0" skipped="0" failures="0">
  <properties>
    <property name="java.specification.version" value="13"/>
    <property name="sun.jnu.encoding" value="UTF-8"/>
    <property name="java.class.path" value="/home/formation/Bureau/java/refactoring/tp-refactoring-graph/target/test-classes:/home/formation/Bureau/java/refactoring/tp-refactoring-graph/target/classes:/home/formation/.m2/repository/org/springframework/boot/spring-boot-starter-web/2.6.2/spring-boot-starter-web-2.6.2.jar:/home/formation/.m2/repository/org/springframework/boot/spring-boot-starter/2.6.2/spring-boot-starter-2.6.2.jar:/home/formation/.m2/repository/org/springframework/boot/spring-boot/2.6.2/spring-boot-2.6.2.jar:/home/formation/.m2/repository/org/springframework/boot/spring-boot-autoconfigure/2.6.2/spring-boot-autoconfigure-2.6.2.jar:/home/formation/.m2/repository/org/springframework/boot/spring-boot-starter-logging/2.6.2/spring-boot-starter-logging-2.6.2.jar:/home/formation/.m2/repository/ch/qos/logback/logback-classic/1.2.9/logback-classic-1.2.9.jar:/home/formation/.m2/repository/ch/qos/logback/logback-core/1.2.9/logback-core-1.2.9.jar:/home/formation/.m2/repository/org/slf4j/slf4j-api/1.7.32/slf4j-api-1.7.32.jar:/home/formation/.m2/repository/org/apache/logging/log4j/log4j-to-slf4j/2.17.0/log4j-to-slf4j-2.17.0.jar:/home/formation/.m2/repository/org/slf4j/jul-to-slf4j/1.7.32/jul-to-slf4j-1.7.32.jar:/home/formation/.m2/repository/jakarta/annotation/jakarta.annotation-api/1.3.5/jakarta.annotation-api-1.3.5.jar:/home/formation/.m2/repository/org/springframework/spring-core/5.3.14/spring-core-5.3.14.jar:/home/formation/.m2/repository/org/springframework/spring-jcl/5.3.14/spring-jcl-5.3.14.jar:/home/formation/.m2/repository/org/yaml/snakeyaml/1.29/snakeyaml-1.29.jar:/home/formation/.m2/repository/org/springframework/boot/spring-boot-starter-json/2.6.2/spring-boot-starter-json-2.6.2.jar:/home/formation/.m2/repository/com/fasterxml/jackson/datatype/jackson-datatype-jdk8/2.13.1/jackson-datatype-jdk8-2.13.1.jar:/home/formation/.m2/repository/com/fasterxml/jackson/datatype/jackson-datatype-jsr310/2.13.1/jackson-datatype-jsr310-2.13.1.jar:/home/formation/.m2/repository/com/fasterxml/jackson/module/jackson-module-parameter-names/2.13.1/jackson-module-parameter-names-2.13.1.jar:/home/formation/.m2/repository/org/springframework/boot/spring-boot-starter-tomcat/2.6.2/spring-boot-starter-tomcat-2.6.2.jar:/home/formation/.m2/repository/org/apache/tomcat/embed/tomcat-embed-core/9.0.56/tomcat-embed-core-9.0.56.jar:/home/formation/.m2/repository/org/apache/tomcat/embed/tomcat-embed-el/9.0.56/tomcat-embed-el-9.0.56.jar:/home/formation/.m2/repository/org/apache/tomcat/embed/tomcat-embed-websocket/9.0.56/tomcat-embed-websocket-9.0.56.jar:/home/formation/.m2/repository/org/springframework/spring-web/5.3.14/spring-web-5.3.14.jar:/home/formation/.m2/repository/org/springframework/spring-beans/5.3.14/spring-beans-5.3.14.jar:/home/formation/.m2/repository/org/springframework/spring-webmvc/5.3.14/spring-webmvc-5.3.14.jar:/home/formation/.m2/repository/org/springframework/spring-aop/5.3.14/spring-aop-5.3.14.jar:/home/formation/.m2/repository/org/springframework/spring-context/5.3.14/spring-context-5.3.14.jar:/home/formation/.m2/repository/org/springframework/spring-expression/5.3.14/spring-expression-5.3.14.jar:/home/formation/.m2/repository/com/github/ulisesbocchio/spring-boot-jar-resources/1.3/spring-boot-jar-resources-1.3.jar:/home/formation/.m2/repository/com/google/guava/guava/20.0/guava-20.0.jar:/home/formation/.m2/repository/org/apache/commons/commons-vfs2/2.1/commons-vfs2-2.1.jar:/home/formation/.m2/repository/commons-logging/commons-logging/1.2/commons-logging-1.2.jar:/home/formation/.m2/repository/commons-io/commons-io/2.5/commons-io-2.5.jar:/home/formation/.m2/repository/org/geotools/gt-shapefile/24.5/gt-shapefile-24.5.jar:/home/formation/.m2/repository/org/geotools/gt-main/24.5/gt-main-24.5.jar:/home/formation/.m2/repository/org/geotools/gt-referencing/24.5/gt-referencing-24.5.jar:/home/formation/.m2/repository/org/ejml/ejml-ddense/0.34/ejml-ddense-0.34.jar:/home/formation/.m2/repository/org/ejml/ejml-core/0.34/ejml-core-0.34.jar:/home/formation/.m2/repository/commons-pool/commons-pool/1.6/commons-pool-1.6.jar:/home/formation/.m2/repository/org/geotools/gt-metadata/24.5/gt-metadata-24.5.jar:/home/formation/.m2/repository/org/geotools/gt-opengis/24.5/gt-opengis-24.5.jar:/home/formation/.m2/repository/systems/uom/systems-common/2.0.1/systems-common-2.0.1.jar:/home/formation/.m2/repository/javax/measure/unit-api/2.0/unit-api-2.0.jar:/home/formation/.m2/repository/tech/units/indriya/2.0.2/indriya-2.0.2.jar:/home/formation/.m2/repository/tech/uom/lib/uom-lib-common/2.0/uom-lib-common-2.0.jar:/home/formation/.m2/repository/javax/inject/javax.inject/1/javax.inject-1.jar:/home/formation/.m2/repository/si/uom/si-quantity/2.0.1/si-quantity-2.0.1.jar:/home/formation/.m2/repository/si/uom/si-units/2.0.1/si-units-2.0.1.jar:/home/formation/.m2/repository/org/geotools/ogc/net.opengis.ows/24.5/net.opengis.ows-24.5.jar:/home/formation/.m2/repository/org/geotools/ogc/org.w3.xlink/24.5/org.w3.xlink-24.5.jar:/home/formation/.m2/repository/org/eclipse/emf/org.eclipse.emf.common/2.15.0/org.eclipse.emf.common-2.15.0.jar:/home/formation/.m2/repository/org/eclipse/emf/org.eclipse.emf.ecore/2.15.0/org.eclipse.emf.ecore-2.15.0.jar:/home/formation/.m2/repository/org/eclipse/emf/org.eclipse.emf.ecore.xmi/2.15.0/org.eclipse.emf.ecore.xmi-2.15.0.jar:/home/formation/.m2/repository/it/geosolutions/jgridshift/jgridshift-core/1.3/jgridshift-core-1.3.jar:/home/formation/.m2/repository/net/sf/geographiclib/GeographicLib-Java/1.49/GeographicLib-Java-1.49.jar:/home/formation/.m2/repository/org/apache/commons/commons-text/1.6/commons-text-1.6.jar:/home/formation/.m2/repository/org/apache/commons/commons-lang3/3.12.0/commons-lang3-3.12.0.jar:/home/formation/.m2/repository/javax/media/jai_core/1.1.3/jai_core-1.1.3.jar:/home/formation/.m2/repository/org/n52/jackson/jackson-datatype-jts/1.2.9/jackson-datatype-jts-1.2.9.jar:/home/formation/.m2/repository/org/locationtech/jts/jts-core/1.18.1/jts-core-1.18.1.jar:/home/formation/.m2/repository/com/fasterxml/jackson/core/jackson-databind/2.13.1/jackson-databind-2.13.1.jar:/home/formation/.m2/repository/com/fasterxml/jackson/core/jackson-annotations/2.13.1/jackson-annotations-2.13.1.jar:/home/formation/.m2/repository/com/fasterxml/jackson/core/jackson-core/2.13.1/jackson-core-2.13.1.jar:/home/formation/.m2/repository/com/google/code/findbugs/jsr305/3.0.2/jsr305-3.0.2.jar:/home/formation/.m2/repository/org/apache/logging/log4j/log4j-core/2.17.0/log4j-core-2.17.0.jar:/home/formation/.m2/repository/org/apache/logging/log4j/log4j-api/2.17.0/log4j-api-2.17.0.jar:/home/formation/.m2/repository/junit/junit/4.13.2/junit-4.13.2.jar:/home/formation/.m2/repository/org/hamcrest/hamcrest-core/2.2/hamcrest-core-2.2.jar:/home/formation/.m2/repository/org/hamcrest/hamcrest/2.2/hamcrest-2.2.jar:"/>
    <property name="java.vm.vendor" value="Private Build"/>
    <property name="sun.arch.data.model" value="64"/>
    <property name="java.vendor.url" value="Unknown"/>
    <property name="os.name" value="Linux"/>
    <property name="java.vm.specification.version" value="13"/>
    <property name="sun.java.launcher" value="SUN_STANDARD"/>
    <property name="user.country" value="FR"/>
    <property name="sun.boot.library.path" value="/usr/lib/jvm/java-13-openjdk-amd64/lib"/>
    <property name="sun.java.command" value="/home/formation/Bureau/java/refactoring/tp-refactoring-graph/target/surefire/surefirebooter5790534746407252539.jar /home/formation/Bureau/java/refactoring/tp-refactoring-graph/target/surefire 2023-01-13T10-36-52_459-jvmRun1 surefire196761425613429795tmp surefire_03950661298881561083tmp"/>
    <property name="jdk.debug" value="release"/>
    <property name="surefire.test.class.path" value="/home/formation/Bureau/java/refactoring/tp-refactoring-graph/target/test-classes:/home/formation/Bureau/java/refactoring/tp-refactoring-graph/target/classes:/home/formation/.m2/repository/org/springframework/boot/spring-boot-starter-web/2.6.2/spring-boot-starter-web-2.6.2.jar:/home/formation/.m2/repository/org/springframework/boot/spring-boot-starter/2.6.2/spring-boot-starter-2.6.2.jar:/home/formation/.m2/repository/org/springframework/boot/spring-boot/2.6.2/spring-boot-2.6.2.jar:/home/formation/.m2/repository/org/springframework/boot/spring-boot-autoconfigure/2.6.2/spring-boot-autoconfigure-2.6.2.jar:/home/formation/.m2/repository/org/springframework/boot/spring-boot-starter-logging/2.6.2/spring-boot-starter-logging-2.6.2.jar:/home/formation/.m2/repository/ch/qos/logback/logback-classic/1.2.9/logback-classic-1.2.9.jar:/home/formation/.m2/repository/ch/qos/logback/logback-core/1.2.9/logback-core-1.2.9.jar:/home/formation/.m2/repository/org/slf4j/slf4j-api/1.7.32/slf4j-api-1.7.32.jar:/home/formation/.m2/repository/org/apache/logging/log4j/log4j-to-slf4j/2.17.0/log4j-to-slf4j-2.17.0.jar:/home/formation/.m2/repository/org/slf4j/jul-to-slf4j/1.7.32/jul-to-slf4j-1.7.32.jar:/home/formation/.m2/repository/jakarta/annotation/jakarta.annotation-api/1.3.5/jakarta.annotation-api-1.3.5.jar:/home/formation/.m2/repository/org/springframework/spring-core/5.3.14/spring-core-5.3.14.jar:/home/formation/.m2/repository/org/springframework/spring-jcl/5.3.14/spring-jcl-5.3.14.jar:/home/formation/.m2/repository/org/yaml/snakeyaml/1.29/snakeyaml-1.29.jar:/home/formation/.m2/repository/org/springframework/boot/spring-boot-starter-json/2.6.2/spring-boot-starter-json-2.6.2.jar:/home/formation/.m2/repository/com/fasterxml/jackson/datatype/jackson-datatype-jdk8/2.13.1/jackson-datatype-jdk8-2.13.1.jar:/home/formation/.m2/repository/com/fasterxml/jackson/datatype/jackson-datatype-jsr310/2.13.1/jackson-datatype-jsr310-2.13.1.jar:/home/formation/.m2/repository/com/fasterxml/jackson/module/jackson-module-parameter-names/2.13.1/jackson-module-parameter-names-2.13.1.jar:/home/formation/.m2/repository/org/springframework/boot/spring-boot-starter-tomcat/2.6.2/spring-boot-starter-tomcat-2.6.2.jar:/home/formation/.m2/repository/org/apache/tomcat/embed/tomcat-embed-core/9.0.56/tomcat-embed-core-9.0.56.jar:/home/formation/.m2/repository/org/apache/tomcat/embed/tomcat-embed-el/9.0.56/tomcat-embed-el-9.0.56.jar:/home/formation/.m2/repository/org/apache/tomcat/embed/tomcat-embed-websocket/9.0.56/tomcat-embed-websocket-9.0.56.jar:/home/formation/.m2/repository/org/springframework/spring-web/5.3.14/spring-web-5.3.14.jar:/home/formation/.m2/repository/org/springframework/spring-beans/5.3.14/spring-beans-5.3.14.jar:/home/formation/.m2/repository/org/springframework/spring-webmvc/5.3.14/spring-webmvc-5.3.14.jar:/home/formation/.m2/repository/org/springframework/spring-aop/5.3.14/spring-aop-5.3.14.jar:/home/formation/.m2/repository/org/springframework/spring-context/5.3.14/spring-context-5.3.14.jar:/home/formation/.m2/repository/org/springframework/spring-expression/5.3.14/spring-expression-5.3.14.jar:/home/formation/.m2/repository/com/github/ulisesbocchio/spring-boot-jar-resources/1.3/spring-boot-jar-resources-1.3.jar:/home/formation/.m2/repository/com/google/guava/guava/20.0/guava-20.0.jar:/home/formation/.m2/repository/org/apache/commons/commons-vfs2/2.1/commons-vfs2-2.1.jar:/home/formation/.m2/repository/commons-logging/commons-logging/1.2/commons-logging-1.2.jar:/home/formation/.m2/repository/commons-io/commons-io/2.5/commons-io-2.5.jar:/home/formation/.m2/repository/org/geotools/gt-shapefile/24.5/gt-shapefile-24.5.jar:/home/formation/.m2/repository/org/geotools/gt-main/24.5/gt-main-24.5.jar:/home/formation/.m2/repository/org/geotools/gt-referencing/24.5/gt-referencing-24.5.jar:/home/formation/.m2/repository/org/ejml/ejml-ddense/0.34/ejml-ddense-0.34.jar:/home/formation/.m2/repository/org/ejml/ejml-core/0.34/ejml-core-0.34.jar:/home/formation/.m2/repository/commons-pool/commons-pool/1.6/commons-pool-1.6.jar:/home/formation/.m2/repository/org/geotools/gt-metadata/24.5/gt-metadata-24.5.jar:/home/formation/.m2/repository/org/geotools/gt-opengis/24.5/gt-opengis-24.5.jar:/home/formation/.m2/repository/systems/uom/systems-common/2.0.1/systems-common-2.0.1.jar:/home/formation/.m2/repository/javax/measure/unit-api/2.0/unit-api-2.0.jar:/home/formation/.m2/repository/tech/units/indriya/2.0.2/indriya-2.0.2.jar:/home/formation/.m2/repository/tech/uom/lib/uom-lib-common/2.0/uom-lib-common-2.0.jar:/home/formation/.m2/repository/javax/inject/javax.inject/1/javax.inject-1.jar:/home/formation/.m2/repository/si/uom/si-quantity/2.0.1/si-quantity-2.0.1.jar:/home/formation/.m2/repository/si/uom/si-units/2.0.1/si-units-2.0.1.jar:/home/formation/.m2/repository/org/geotools/ogc/net.opengis.ows/24.5/net.opengis.ows-24.5.jar:/home/formation/.m2/repository/org/geotools/ogc/org.w3.xlink/24.5/org.w3.xlink-24.5.jar:/home/formation/.m2/repository/org/eclipse/emf/org.eclipse.emf.common/2.15.0/org.eclipse.emf.common-2.15.0.jar:/home/formation/.m2/repository/org/eclipse/emf/org.eclipse.emf.ecore/2.15.0/org.eclipse.emf.ecore-2.15.0.jar:/home/formation/.m2/repository/org/eclipse/emf/org.eclipse.emf.ecore.xmi/2.15.0/org.eclipse.emf.ecore.xmi-2.15.0.jar:/home/formation/.m2/repository/it/geosolutions/jgridshift/jgridshift-core/1.3/jgridshift-core-1.3.jar:/home/formation/.m2/repository/net/sf/geographiclib/GeographicLib-Java/1.49/GeographicLib-Java-1.49.jar:/home/formation/.m2/repository/org/apache/commons/commons-text/1.6/commons-text-1.6.jar:/home/formation/.m2/repository/org/apache/commons/commons-lang3/3.12.0/commons-lang3-3.12.0.jar:/home/formation/.m2/repository/javax/media/jai_core/1.1.3/jai_core-1.1.3.jar:/home/formation/.m2/repository/org/n52/jackson/jackson-datatype-jts/1.2.9/jackson-datatype-jts-1.2.9.jar:/home/formation/.m2/repository/org/locationtech/jts/jts-core/1.18.1/jts-core-1.18.1.jar:/home/formation/.m2/repository/com/fasterxml/jackson/core/jackson-databind/2.13.1/jackson-databind-2.13.1.jar:/home/formation/.m2/repository/com/fasterxml/jackson/core/jackson-annotations/2.13.1/jackson-annotations-2.13.1.jar:/home/formation/.m2/repository/com/fasterxml/jackson/core/jackson-core/2.13.1/jackson-core-2.13.1.jar:/home/formation/.m2/repository/com/google/code/findbugs/jsr305/3.0.2/jsr305-3.0.2.jar:/home/formation/.m2/repository/org/apache/logging/log4j/log4j-core/2.17.0/log4j-core-2.17.0.jar:/home/formation/.m2/repository/org/apache/logging/log4j/log4j-api/2.17.0/log4j-api-2.17.0.jar:/home/formation/.m2/repository/junit/junit/4.13.2/junit-4.13.2.jar:/home/formation/.m2/repository/org/hamcrest/hamcrest-core/2.2/hamcrest-core-2.2.jar:/home/formation/.m2/repository/org/hamcrest/hamcrest/2.2/hamcrest-2.2.jar:"/>
    <property name="sun.cpu.endian" value="little"/>
    <property name="user.home" value="/home/formation"/>
    <property name="user.language" value="fr"/>
    <property name="java.specification.vendor" value="Oracle Corporation"/>
    <property name="java.version.date" value="2021-04-20"/>
    <property name="java.home" value="/usr/lib/jvm/java-13-openjdk-amd64"/>
    <property name="file.separator" value="/"/>
    <property name="basedir" value="/home/formation/Bureau/java/refactoring/tp-refactoring-graph"/>
    <property name="java.vm.compressedOopsMode" value="Zero based"/>
    <property name="line.separator" value="&#10;"/>
    <property name="java.vm.specification.vendor" value="Oracle Corporation"/>
    <property name="java.specification.name" value="Java Platform API Specification"/>
    <property name="surefire.real.class.path" value="/home/formation/Bureau/java/refactoring/tp-refactoring-graph/target/surefire/surefirebooter5790534746407252539.jar"/>
    <property name="sun.management.compiler" value="HotSpot 64-Bit Tiered Compilers"/>
    <property name="java.runtime.version" value="13.0.7+5-Ubuntu-0ubuntu120.04"/>
    <property name="user.name" value="formation"/>
    <property name="path.separator" value=":"/>
    <property name="os.version" value="5.15.0-57-generic"/>
    <property name="java.runtime.name" value="OpenJDK Runtime Environment"/>
    <property name="file.encoding" value="UTF-8"/>
    <property name="java.vm.name" value="OpenJDK 64-Bit Server VM"/>
    <property name="localRepository" value="/home/formation/.m2/repository"/>
    <property name="java.vendor.url.bug" value="Unknown"/>
    <property name="java.io.tmpdir" value="/tmp"/>
    <property name="java.version" value="13.0.7"/>
    <property name="user.dir" value="/home/formation/Bureau/java/refactoring/tp-refactoring-graph"/>
    <property name="os.arch" value="amd64"/>
    <property name="java.vm.specification.name" value="Java Virtual Machine Specification"/>
    <property name="java.library.path" value="/usr/java/packages/lib:/usr/lib/x86_64-linux-gnu/jni:/lib/x86_64-linux-gnu:/usr/lib/x86_64-linux-gnu:/usr/lib/jni:/lib:/usr/lib"/>
    <property name="java.vm.info" value="mixed mode"/>
    <property name="java.vendor" value="Private Build"/>
    <property name="java.vm.version" value="13.0.7+5-Ubuntu-0ubuntu120.04"/>
    <property name="sun.io.unicode.encoding" value="UnicodeLittle"/>
    <property name="java.class.version" value="57.0"/>
  </properties>
  <testcase name="testRoute500" classname="org.acme.graph.io.GraphReaderTest" time="8.09"/>
</testsuite>